…
homd_df %>% 
  group_by(city_state) %>% 
  summarize(
    ttl_homicide = n(),
    unsol_homicide = sum(status == "unsolved")
  )
```

    ## # A tibble: 50 × 3
    ##    city_state      ttl_homicide unsol_homicide
    ##    <chr>                  <int>          <int>
    ##  1 Albuquerque, NM          378            146
    ##  2 Atlanta, GA              973            373
    ##  3 Baltimore, MD           2827           1825
    ##  4 Baton Rouge, LA          424            196
    ##  5 Birmingham, AL           800            347
    ##  6 Boston, MA               614            310
    ##  7 Buffalo, NY              521            319
    ##  8 Charlotte, NC            687            206
    ##  9 Chicago, IL             5535           4073
    ## 10 Cincinnati, OH           694            309
    ## # … with 40 more rows
…
``` r
result_df <- 
  homd_df %>% 
  nest(data = uid:status) %>% 
  mutate(
    test_results = map(data, prop_test_function),
    tidy_results = map(test_results, broom::tidy)
  ) %>% 
  unnest(tidy_results) %>% 
  select(city_state, estimate, starts_with("conf"))

result_df
```

    ## # A tibble: 50 × 4
    ##    city_state      estimate conf.low conf.high
    ##    <chr>              <dbl>    <dbl>     <dbl>
    ##  1 Albuquerque, NM    0.386    0.337     0.438
    ##  2 Atlanta, GA        0.383    0.353     0.415
    ##  3 Baltimore, MD      0.646    0.628     0.663
    ##  4 Baton Rouge, LA    0.462    0.414     0.511
    ##  5 Birmingham, AL     0.434    0.399     0.469
    ##  6 Boston, MA         0.505    0.465     0.545
    ##  7 Buffalo, NY        0.612    0.569     0.654
    ##  8 Charlotte, NC      0.300    0.266     0.336
    ##  9 Chicago, IL        0.736    0.724     0.747
    ## 10 Cincinnati, OH     0.445    0.408     0.483
    ## # … with 40 more rows
…
**Introduce some missing values in each column**

``` r
set.seed(10)

iris_with_missing <- 
  iris %>% 
  map_df(~ replace(.x, sample(1:150, 20), NA)) %>% 
  mutate(Species = as.character(Species))

iris_with_missing
```

    ## # A tibble: 150 × 5
    ##    Sepal.Length Sepal.Width Petal.Length Petal.Width Species
    ##           <dbl>       <dbl>        <dbl>       <dbl> <chr>  
    ##  1          5.1         3.5          1.4         0.2 setosa 
    ##  2          4.9         3            1.4         0.2 setosa 
    ##  3          4.7         3.2          1.3         0.2 setosa 
    ##  4          4.6         3.1          1.5        NA   setosa 
    ##  5          5           3.6          1.4         0.2 setosa 
    ##  6          5.4         3.9          1.7         0.4 setosa 
    ##  7         NA           3.4          1.4         0.3 setosa 
    ##  8          5           3.4          1.5         0.2 setosa 
    ##  9          4.4         2.9          1.4         0.2 setosa 
    ## 10          4.9         3.1         NA           0.1 setosa 
    ## # … with 140 more rows
…
  return(vector)
  
}
```

**Apply the above function**

``` r
iris_with_missing %>% 
  map_df(~ fill_in_missing(.))
```

    ## # A tibble: 150 × 5
    ##    Sepal.Length Sepal.Width Petal.Length Petal.Width Species
    ##           <dbl>       <dbl>        <dbl>       <dbl> <chr>  
    ##  1         5.1          3.5         1.4         0.2  setosa 
    ##  2         4.9          3           1.4         0.2  setosa 
    ##  3         4.7          3.2         1.3         0.2  setosa 
    ##  4         4.6          3.1         1.5         1.19 setosa 
    ##  5         5            3.6         1.4         0.2  setosa 
    ##  6         5.4          3.9         1.7         0.4  setosa 
    ##  7         5.82         3.4         1.4         0.3  setosa 
    ##  8         5            3.4         1.5         0.2  setosa 
    ##  9         4.4          2.9         1.4         0.2  setosa 
    ## 10         4.9          3.1         3.77        0.1  setosa 
    ## # … with 140 more rows
